ï»¿First Name,Middle Name,Last Name,Title,Suffix,Nickname,Given Yomi,Surname Yomi,E-mail Address,E-mail 2 Address,E-mail 3 Address,Home Phone,Home Phone 2,Business Phone,Business Phone 2,Mobile Phone,Car Phone,Other Phone,Primary Phone,Pager,Business Fax,Home Fax,Other Fax,Company Main Phone,Callback,Radio Phone,Telex,TTY/TDD Phone,IMAddress,Job Title,Department,Company,Office Location,Manager's Name,Assistant's Name,Assistant's Phone,Company Yomi,Business Street,Business City,Business State,Business Postal Code,Business Country/Region,Home Street,Home City,Home State,Home Postal Code,Home Country/Region,Other Street,Other City,Other State,Other Postal Code,Other Country/Region,Personal Web Page,Spouse,Schools,Hobby,Location,Web Page,Birthday,Anniversary,Notes
Tio,Beto,Pai,,,,,,,,,,,,,999502095,,,,,,,,,,,,,,,,,,,,,,,,,,,,,,,,,,,,,,,,,,,,,
Tia,,Konka,,,,,,,,,,,,,999763829,,,,,,,,,,,,,,,,,,,,,,,,,,,,,,,,,,,,,,,,,,,,,
Diomicio,,,,,,,,,,,,,,,+55 48 9902-7516,,,,,,,,,,,,,,,,,,,,,,,,,,,,,,,,,,,,,,,,,,,,,
Clube De,Tiro,Ararangua,,,,,,,,,,,,,+55 48 9915-0979,,,,,,,,,,,,,,,,,,,,,,,,,,,,,,,,,,,,,,,,,,,,,
Denise,,,,,,,,,,,,,,,,,+55 48 9660-7306,,,,,,,,,,,,,,,,,,,,,,,,,,,,,,,,,,,,,,,,,,,
Marco,Antonio,Filho,,,,,,,,,,,,,999319641,,,,,,,,,,,,,,,,,,,,,,,,,,,,,,,,,,,,,,,,,,,,,
Jef,,Retiro,,,,,,,,,,,,,996749326,,,,,,,,,,,,,,,,,,,,,,,,,,,,,,,,,,,,,,,,,,,,,
Alveri,,Vizinho,,,,,,,,,,,,,996757545,,,,,,,,,,,,,,,,,,,,,,,,,,,,,,,,,,,,,,,,,,,,,
Jonas,Mestre,Cerimonia,,,,,,,,,,,,,,,+55 48 9955-0813,,,,,,,,,,,,,,,,,,,,,,,,,,,,,,,,,,,,,,,,,,,
Central,Giassi,Ilevio,,,,,,,,,,,,,0144834613433,,,,,,,,,,,,,,,,,,,,,,,,,,,,,,,,,,,,,,,,,,,,,
Abmar,,Pedreira,,,,,,,,,,,,,0144834684548,,,,,,,,,,,,,,,,,,,,,,,,,,,,,,,,,,,,,,,,,,,,,
Marcio,Sao,Francisco,,,,,,,,,,,,,996681515,,,,,,,,,,,,,,,,,,,,,,,,,,,,,,,,,,,,,,,,,,,,,
Abmar,Amigo,Alisom,,,,,,,,,,,,,+55 48 9862-8977,,,,,,,,,,,,,,,,,,,,,,,,,,,,,,,,,,,,,,,,,,,,,
Dc,,Congelados,,,,,,,,,,,,,+55 48 9613-9659,,,,,,,,,,,,,,,,,,,,,,,,,,,,,,,,,,,,,,,,,,,,,
Codigo,Big,Bom,,,,,,,,,,,,,134503,,,,,,,,,,,,,,,,,,,,,,,,,,,,,,,,,,,,,,,,,,,,,
Agenor/grama,,,,,,,,,,,,,,,,,+55 48 9953-5012,,,,,,,,,,,,,,,,,,,,,,,,,,,,,,,,,,,,,,,,,,,
Pao De,Alho,Marcos,,,,,,,,,,,,,996930112,,,,,,,,,,,,,,,,,,,,,,,,,,,,,,,,,,,,,,,,,,,,,
Edson,,Manu,,,,,,,,,,,,,996260806,,,,,,,,,,,,,,,,,,,,,,,,,,,,,,,,,,,,,,,,,,,,,
Paulo,Do,Marcos,,,,,,,,,,,,,+55 48 9634-8391,,,,,,,,,,,,,,,,,,,,,,,,,,,,,,,,,,,,,,,,,,,,,
Adauto,Vip,Car,,,,,,,,,,,,,+55 48 99978-8898,,,,,,,,,,,,,,,,,,,,,,,,,,,,,,,,,,,,,,,,,,,,,
ponto a ponto,,,,,,,,armarinhospontoaponto@gmail.com,,,,,,,,,,,,,,,,,,,,,,,,,,,,,,,,,,,,,,,,,,,,,,,,,,,,
,,,,,,,,dioextreme21@gmail.com,,,,,,,,,,,,,,,,,,,,,,,,,,,,,,,,,,,,,,,,,,,,,,,,,,,,
,,,,,,,,ecbenites@yahoo.com.br,,,,,,,,,,,,,,,,,,,,,,,,,,,,,,,,,,,,,,,,,,,,,,,,,,,,
,,,,,,,,lisandra@metaltech.ind.br,,,,,,,,,,,,,,,,,,,,,,,,,,,,,,,,,,,,,,,,,,,,,,,,,,,,
,,,,,,,,jefferson@metaltech.ind.br,,,,,,,,,,,,,,,,,,,,,,,,,,,,,,,,,,,,,,,,,,,,,,,,,,,,
Rodrigo,,Nolla,,,,,,rodn76@hotmail.com,,,,,,,,,,,,,,,,,,,,,,,,,,,,,,,,,,,,,,,,,,,,,,,,,,,,
,,,,,,,,daltonluch@hotmail.com,,,,,,,,,,,,,,,,,,,,,,,,,,,,,,,,,,,,,,,,,,,,,,,,,,,,
hortencia,,munaretto,,,,,,hortenciag1@hotmail.com,,,,,,,,,,,,,,,,,,,,,,,,,,,,,,,,,,,,,,,,,,,,,,,,,,,,
U,,U,,,,,,joao.veneza@hotmail.com,,,,,,,,,,,,,,,,,,,,,,,,,,,,,,,,,,,,,,,,,,,,,,,,,,,,
,,,,,,,,veneza@laticiniosveneza.ind.br,,,,,,,,,,,,,,,,,,,,,,,,,,,,,,,,,,,,,,,,,,,,,,,,,,,,
Leandro,,,,,,,,leandro@jeremias.com.br,,,,,,,,,,,,,,,,,,,,,,,,,,,,,,,,,,,,,,,,,,,,,,,,,,,,
,,,,,,,,evilasiodocanto@bol.com.br,,,,,,,,,,,,,,,,,,,,,,,,,,,,,,,,,,,,,,,,,,,,,,,,,,,,
,,,,,,,,jorgewema@gmail.com,,,,,,,,,,,,,,,,,,,,,,,,,,,,,,,,,,,,,,,,,,,,,,,,,,,,
,,,,,,,,rafael_corretor14174@hotmail.com,,,,,,,,,,,,,,,,,,,,,,,,,,,,,,,,,,,,,,,,,,,,,,,,,,,,
,,,,,,,,arpossamai@contato.net,,,,,,,,,,,,,,,,,,,,,,,,,,,,,,,,,,,,,,,,,,,,,,,,,,,,
,,,,,,,,antonio@projetarimoveis.com.br,,,,,,,,,,,,,,,,,,,,,,,,,,,,,,,,,,,,,,,,,,,,,,,,,,,,
,,,,,,,,junior@menegalli.com.br,,,,,,,,,,,,,,,,,,,,,,,,,,,,,,,,,,,,,,,,,,,,,,,,,,,,
,,,,,,,,cristiano.costa@contato.net,,,,,,,,,,,,,,,,,,,,,,,,,,,,,,,,,,,,,,,,,,,,,,,,,,,,
,,,,,,,,luishenrique@emgeplus.com.br,,,,,,,,,,,,,,,,,,,,,,,,,,,,,,,,,,,,,,,,,,,,,,,,,,,,
,,,,,,,,jonathan@dimasa.com.br,,,,,,,,,,,,,,,,,,,,,,,,,,,,,,,,,,,,,,,,,,,,,,,,,,,,
,,,,,,,,rodrigo.nolla@outlook.com,,,,,,,,,,,,,,,,,,,,,,,,,,,,,,,,,,,,,,,,,,,,,,,,,,,,
